{
  "images" : [
    {
      "idiom" : "universal",
      "scale" : "1x",
      "filename" : "44002ca0-872f-4b3d-97d1-22e86ac15d3dWallpAutoWallpaper2.JPG"
    },
    {
      "idiom" : "universal",
      "scale" : "2x"
    },
    {
      "idiom" : "universal",
      "scale" : "3x"
    }
  ],
  "info" : {
    "version" : 1,
    "author" : "xcode"
  }
}